Chapter 2 R basics | Egocentric network analysis with R
…
## Rows: 102 Columns: 9
## ── Column specification ────────────────────────────────────────────────────────
## Delimiter: ","
## chr (4): ego.sex, ego.edu, ego.empl.bin, ego.age.cat
## dbl (5): ego_ID, ego.age, ego.arr, ego.inc, empl
## 
## ℹ Use `spec()` to retrieve the full column specification for this data.
## ℹ Specify the column types or set `show_col_types = FALSE` to quiet this message.

# View the result.
ego.df

## # A tibble: 102 × 9
##    ego_ID ego.sex ego.age ego.arr ego.edu   ego.inc  empl ego.empl.bin ego.age…¹
##     <dbl> <chr>     <dbl>   <dbl> <chr>       <dbl> <dbl> <chr>        <chr>    
##  1     28 Male         61    2008 Secondary     350     3 Yes          60+      
##  2     29 Male         38    2000 Primary       900     4 Yes          36-40    
##  3     33 Male         30    2010 Primary       200     3 Yes          26-30    
##  4     35 Male         25    2009 Secondary    1000     3 Yes          18-25    
##  5     39 Male         29    2007 Primary         0     1 No           26-30    
##  6     40 Male         56    2008 Secondary     950     4 Yes          51-60    
##  7     45 Male         52    1975 Primary      1600     3 Yes          51-60    
##  8     46 Male         35    2002 Secondary    1200     4 Yes          31-35    
##  9     47 Male         22    2010 Secondary     700     4 Yes          18-25    
## 10     48 Male         51    2007 Primary       950     4 Yes          51-60    
## # … with 92 more rows, and abbreviated variable name ¹​ego.age.cat
…
## [1] 45 56 52 51

# We could also have typed directly:
age[age > 40 & age < 60]

## [1] 45 56 52 51

# Indexing data frames: list notations                                      ---- 
# - - - - - - - - - - - - - - - - - - - - - - - - - - - - - - - - - - - - - - - 

# We'll use our ego-level data frame.
ego.df

## # A tibble: 102 × 9
##    ego_ID ego.sex ego.age ego.arr ego.edu   ego.inc  empl ego.empl.bin ego.age…¹
##     <dbl> <chr>     <dbl>   <dbl> <chr>       <dbl> <dbl> <chr>        <chr>    
##  1     28 Male         61    2008 Secondary     350     3 Yes          60+      
##  2     29 Male         38    2000 Primary       900     4 Yes          36-40    
##  3     33 Male         30    2010 Primary       200     3 Yes          26-30    
##  4     35 Male         25    2009 Secondary    1000     3 Yes          18-25    
##  5     39 Male         29    2007 Primary         0     1 No           26-30    
##  6     40 Male         56    2008 Secondary     950     4 Yes          51-60    
##  7     45 Male         52    1975 Primary      1600     3 Yes          51-60    
##  8     46 Male         35    2002 Secondary    1200     4 Yes          31-35    
##  9     47 Male         22    2010 Secondary     700     4 Yes          18-25    
## 10     48 Male         51    2007 Primary       950     4 Yes          51-60    
## # … with 92 more rows, and abbreviated variable name ¹​ego.age.cat

# The 3rd variable.
ego.df[3]

## # A tibble: 102 × 1
##    ego.age
##      <dbl>
##  1      61
##  2      38
##  3      30
##  4      25
##  5      29
##  6      56
##  7      52
##  8      35
##  9      22
## 10      51
## # … with 92 more rows

ego.df["ego.age"]

## # A tibble: 102 × 1
##    ego.age
##      <dbl>
##  1      61
##  2      38
##  3      30
##  4      25
##  5      29
##  6      56
##  7      52
##  8      35
##  9      22
## 10      51
## # … with 92 more rows

# The second and third variables.
ego.df[2:3]

## # A tibble: 102 × 2
##    ego.sex ego.age
##    <chr>     <dbl>
##  1 Male         61
##  2 Male         38
##  3 Male         30
##  4 Male         25
##  5 Male         29
##  6 Male         56
##  7 Male         52
##  8 Male         35
##  9 Male         22
## 10 Male         51
## # … with 92 more rows
…
# Fifth adn sixth row, fourth variable.
ego.df[5:6,4]

## # A tibble: 2 × 1
##   ego.arr
##     <dbl>
## 1    2007
## 2    2008

# sex and age variables.
ego.df[, c("ego.sex", "ego.age")]

## # A tibble: 102 × 2
##    ego.sex ego.age
##    <chr>     <dbl>
##  1 Male         61
##  2 Male         38
##  3 Male         30
##  4 Male         25
##  5 Male         29
##  6 Male         56
##  7 Male         52
##  8 Male         35
##  9 Male         22
## 10 Male         51
## # … with 92 more rows
…
edu

## [1] 34

# Subsetting data frames with dplyr: filter and select                      ----
# - - - - - - - - - - - - - - - - - - - - - - - - - - - - - - - - - - - - - - - 

# Filter to egos who are older than 40
ego.df %>%
  filter(ego.age > 40)

## # A tibble: 51 × 9
##    ego_ID ego.sex ego.age ego.arr ego.edu    ego.inc  empl ego.empl.bin ego.ag…¹
##     <dbl> <chr>     <dbl>   <dbl> <chr>        <dbl> <dbl> <chr>        <chr>   
##  1     28 Male         61    2008 Secondary      350     3 Yes          60+     
##  2     40 Male         56    2008 Secondary      950     4 Yes          51-60   
##  3     45 Male         52    1975 Primary       1600     3 Yes          51-60   
##  4     48 Male         51    2007 Primary        950     4 Yes          51-60   
##  5     49 Male         50    2001 Secondary     1300     4 Yes          41-50   
##  6     51 Male         45    2011 Secondary      480     3 Yes          41-50   
##  7     52 Male         51    2002 University    1200     4 Yes          51-60   
##  8     55 Male         57    1979 Secondary      470     7 No           51-60   
##  9     56 Male         42    1992 Primary       1100     4 Yes          41-50   
## 10     58 Male         55    1990 Secondary     1450     4 Yes          51-60   
## # … with 41 more rows, and abbreviated variable name ¹​ego.age.cat

# Filter to egos with Primary education
ego.df %>%
  filter(ego.edu == "Primary")

## # A tibble: 42 × 9
##    ego_ID ego.sex ego.age ego.arr ego.edu ego.inc  empl ego.empl.bin ego.age.cat
##     <dbl> <chr>     <dbl>   <dbl> <chr>     <dbl> <dbl> <chr>        <chr>      
##  1     29 Male         38    2000 Primary     900     4 Yes          36-40      
##  2     33 Male         30    2010 Primary     200     3 Yes          26-30      
##  3     39 Male         29    2007 Primary       0     1 No           26-30      
##  4     45 Male         52    1975 Primary    1600     3 Yes          51-60      
##  5     48 Male         51    2007 Primary     950     4 Yes          51-60      
##  6     53 Male         32    2003 Primary    1600     1 No           31-35      
##  7     56 Male         42    1992 Primary    1100     4 Yes          41-50      
##  8     57 Male         32    2000 Primary    1200     4 Yes          31-35      
##  9     60 Male         25    2011 Primary       0     1 No           18-25      
## 10     64 Male         54    1981 Primary     300     3 Yes          51-60      
## # … with 32 more rows

# Combine the two conditions: Intersection.
ego.df %>%
  filter(ego.age > 40 & ego.edu == "Primary")

## # A tibble: 21 × 9
##    ego_ID ego.sex ego.age ego.arr ego.edu ego.inc  empl ego.empl.bin ego.age.cat
##     <dbl> <chr>     <dbl>   <dbl> <chr>     <dbl> <dbl> <chr>        <chr>      
##  1     45 Male         52    1975 Primary    1600     3 Yes          51-60      
##  2     48 Male         51    2007 Primary     950     4 Yes          51-60      
##  3     56 Male         42    1992 Primary    1100     4 Yes          41-50      
##  4     64 Male         54    1981 Primary     300     3 Yes          51-60      
##  5     68 Male         41    2008 Primary     600     4 Yes          41-50      
##  6     82 Male         57    1982 Primary    1190     4 Yes          51-60      
##  7     85 Male         42    2008 Primary     400     2 No           41-50      
##  8     90 Male         56    2004 Primary     450     4 Yes          51-60      
##  9     93 Male         47    2010 Primary     880     4 Yes          41-50      
## 10     95 Male         43    1997 Primary     800     4 Yes          41-50      
## # … with 11 more rows

# Combine the two conditions: Union.
ego.df %>%
  filter(ego.age > 40 | ego.edu == "Primary")

## # A tibble: 72 × 9
##    ego_ID ego.sex ego.age ego.arr ego.edu    ego.inc  empl ego.empl.bin ego.ag…¹
##     <dbl> <chr>     <dbl>   <dbl> <chr>        <dbl> <dbl> <chr>        <chr>   
##  1     28 Male         61    2008 Secondary      350     3 Yes          60+     
##  2     29 Male         38    2000 Primary        900     4 Yes          36-40   
##  3     33 Male         30    2010 Primary        200     3 Yes          26-30   
##  4     39 Male         29    2007 Primary          0     1 No           26-30   
##  5     40 Male         56    2008 Secondary      950     4 Yes          51-60   
##  6     45 Male         52    1975 Primary       1600     3 Yes          51-60   
##  7     48 Male         51    2007 Primary        950     4 Yes          51-60   
##  8     49 Male         50    2001 Secondary     1300     4 Yes          41-50   
##  9     51 Male         45    2011 Secondary      480     3 Yes          41-50   
## 10     52 Male         51    2002 University    1200     4 Yes          51-60   
## # … with 62 more rows, and abbreviated variable name ¹​ego.age.cat

# Note that the object ego.df hasn't changed. To re-use any of the filtered data
# frames above, we have to assign them to an object.
ego.df.40 <- ego.df %>%
  filter(ego.age > 40)

ego.df.40

## # A tibble: 51 × 9
##    ego_ID ego.sex ego.age ego.arr ego.edu    ego.inc  empl ego.empl.bin ego.ag…¹
##     <dbl> <chr>     <dbl>   <dbl> <chr>        <dbl> <dbl> <chr>        <chr>   
##  1     28 Male         61    2008 Secondary      350     3 Yes          60+     
##  2     40 Male         56    2008 Secondary      950     4 Yes          51-60   
##  3     45 Male         52    1975 Primary       1600     3 Yes          51-60   
##  4     48 Male         51    2007 Primary        950     4 Yes          51-60   
##  5     49 Male         50    2001 Secondary     1300     4 Yes          41-50   
##  6     51 Male         45    2011 Secondary      480     3 Yes          41-50   
##  7     52 Male         51    2002 University    1200     4 Yes          51-60   
##  8     55 Male         57    1979 Secondary      470     7 No           51-60   
##  9     56 Male         42    1992 Primary       1100     4 Yes          41-50   
## 10     58 Male         55    1990 Secondary     1450     4 Yes          51-60   
## # … with 41 more rows, and abbreviated variable name ¹​ego.age.cat

# Select specific variables
ego.df.40 %>%
  dplyr::select(ego.sex, ego.age)

## # A tibble: 51 × 2
##    ego.sex ego.age
##    <chr>     <dbl>
##  1 Male         61
##  2 Male         56
##  3 Male         52
##  4 Male         51
##  5 Male         50
##  6 Male         45
##  7 Male         51
##  8 Male         57
##  9 Male         42
## 10 Male         55
## # … with 41 more rows

# We can use %<>% to re-assign the result to the same data object
# Select specific variables
ego.df.40 %<>%
  dplyr::select(ego.sex, ego.age)

ego.df.40

## # A tibble: 51 × 2
##    ego.sex ego.age
##    <chr>     <dbl>
##  1 Male         61
##  2 Male         56
##  3 Male         52
##  4 Male         51
##  5 Male         50
##  6 Male         45
##  7 Male         51
##  8 Male         57
##  9 Male         42
## 10 Male         55
## # … with 41 more rows
…
