Chapter 4 Ego-network composition | Egocentric network analysis with R
…
# Load packages.
library(tidyverse)
library(skimr)
library(janitor)

# Load data.
load("./Data/data.rda")

# For compositional measures all we need is the alter attribute data frame.
# The data.rda file loaded above includes the alter attribute data frame for
# ego ID 28.
alter.attr.28

## # A tibble: 45 × 12
##    alter_ID ego_ID alter_num alter.sex alter.age.cat alter.rel    alter.nat
##       <dbl>  <dbl>     <dbl> <fct>     <fct>         <fct>        <fct>    
##  1     2801     28         1 Female    51-60         Close family Sri Lanka
##  2     2802     28         2 Male      51-60         Other family Sri Lanka
##  3     2803     28         3 Male      51-60         Close family Sri Lanka
##  4     2804     28         4 Male      60+           Close family Sri Lanka
##  5     2805     28         5 Female    41-50         Close family Sri Lanka
##  6     2806     28         6 Female    60+           Close family Sri Lanka
##  7     2807     28         7 Male      41-50         Other family Sri Lanka
##  8     2808     28         8 Female    36-40         Other family Sri Lanka
##  9     2809     28         9 Female    51-60         Other family Sri Lanka
## 10     2810     28        10 Male      60+           Other family Sri Lanka
## # ℹ 35 more rows
## # ℹ 5 more variables: alter.res <fct>, alter.clo <dbl>, alter.loan <fct>,
## #   alter.fam <fct>, alter.age <dbl>
…
## # A tibble: 1 × 5
##   mean.clo prop.fem count.nat.slk count.nat.ita count.nat.oth
##      <dbl>    <dbl>         <int>         <int>         <int>
## 1      4.1    0.178            43             0             2

# What if we want to calculate the same measures for all ego-networks in the data?
# We'll have to use the data frame with all alter attributes from all egos.
alter.attr.all

## # A tibble: 4,590 × 12
##    alter_ID ego_ID alter_num alter.sex alter.age.cat alter.rel    alter.nat
##       <dbl>  <dbl>     <dbl> <fct>     <fct>         <fct>        <fct>    
##  1     2801     28         1 Female    51-60         Close family Sri Lanka
##  2     2802     28         2 Male      51-60         Other family Sri Lanka
##  3     2803     28         3 Male      51-60         Close family Sri Lanka
##  4     2804     28         4 Male      60+           Close family Sri Lanka
##  5     2805     28         5 Female    41-50         Close family Sri Lanka
##  6     2806     28         6 Female    60+           Close family Sri Lanka
##  7     2807     28         7 Male      41-50         Other family Sri Lanka
##  8     2808     28         8 Female    36-40         Other family Sri Lanka
##  9     2809     28         9 Female    51-60         Other family Sri Lanka
## 10     2810     28        10 Male      60+           Other family Sri Lanka
## # ℹ 4,580 more rows
## # ℹ 5 more variables: alter.res <fct>, alter.clo <dbl>, alter.loan <fct>,
## #   alter.fam <fct>, alter.age <dbl>
# dplyr allows us to "group" a data frame by a factor (here, ego IDs) so all
# measures we calculate on that data frame via summarise (means, proportions,
# etc.) are calculated by the groups given by that factor (here, for each ego
# ID).
alter.attr.all |> 
  group_by(ego_ID) |> 
  summarise(
    mean.clo = mean(alter.clo, na.rm=TRUE), 
    prop.fem = mean(alter.sex=="Female"), 
    count.nat.slk = sum(alter.nat=="Sri Lanka"), 
    count.nat.ita = sum(alter.nat=="Italy"), 
    count.nat.oth = sum(alter.nat=="Other")
  )

## # A tibble: 102 × 6
##    ego_ID mean.clo prop.fem count.nat.slk count.nat.ita count.nat.oth
##     <dbl>    <dbl>    <dbl>         <int>         <int>         <int>
##  1     28     4.1    0.178             43             0             2
##  2     29     4.03   0.0889            44             1             0
##  3     33     3.62   0.378             32             2            11
##  4     35     3.78   0.289             33             4             8
##  5     39     3.73   0.244             39             5             1
##  6     40     3.32   0.356             34             1            10
##  7     45     4.02   0.244             14            19            12
##  8     46     3.48   0.4               33             7             5
##  9     47     4.05   0.267             45             0             0
## 10     48     4.07   0.311             39             4             2
## # ℹ 92 more rows
…
## # A tibble: 1 × 4
##   mean.clo.fr mean.clo.acq count.fam.slk count.fam.ita
##         <dbl>        <dbl>         <int>         <int>
## 1        4.44         2.75             5             0

# Compositional measures of homophily between ego and alters                ----
# - - - - - - - - - - - - - - - - - - - - - - - - - - - - - - - - - - - - - - - 

# Level-1 join: Bring ego-level data into alter-level data frame for ego 28.
(data.28 <- left_join(alter.attr.28, ego.df, by= "ego_ID"))

## # A tibble: 45 × 20
##    alter_ID ego_ID alter_num alter.sex alter.age.cat alter.rel    alter.nat
##       <dbl>  <dbl>     <dbl> <fct>     <fct>         <fct>        <fct>    
##  1     2801     28         1 Female    51-60         Close family Sri Lanka
##  2     2802     28         2 Male      51-60         Other family Sri Lanka
##  3     2803     28         3 Male      51-60         Close family Sri Lanka
##  4     2804     28         4 Male      60+           Close family Sri Lanka
##  5     2805     28         5 Female    41-50         Close family Sri Lanka
##  6     2806     28         6 Female    60+           Close family Sri Lanka
##  7     2807     28         7 Male      41-50         Other family Sri Lanka
##  8     2808     28         8 Female    36-40         Other family Sri Lanka
##  9     2809     28         9 Female    51-60         Other family Sri Lanka
## 10     2810     28        10 Male      60+           Other family Sri Lanka
## # ℹ 35 more rows
## # ℹ 13 more variables: alter.res <fct>, alter.clo <dbl>, alter.loan <fct>,
## #   alter.fam <fct>, alter.age <dbl>, ego.sex <fct>, ego.age <dbl>,
## #   ego.arr <dbl>, ego.edu <fct>, ego.inc <dbl>, empl <dbl>,
## #   ego.empl.bin <fct>, ego.age.cat <fct>

# Note the left join: We only retain rows in the left data frame (i.e., alters
# of ego 28), and discard all egos in the right data frame that do not
# correspond to those rows.

# Example: Proportion of alters of the same gender as ego.

# View the relevant data
data.28 |> 
  dplyr::select(alter_ID, ego_ID, alter.sex, ego.sex)

## # A tibble: 45 × 4
##    alter_ID ego_ID alter.sex ego.sex
##       <dbl>  <dbl> <fct>     <fct>  
##  1     2801     28 Female    Male   
##  2     2802     28 Male      Male   
##  3     2803     28 Male      Male   
##  4     2804     28 Male      Male   
##  5     2805     28 Female    Male   
##  6     2806     28 Female    Male   
##  7     2807     28 Male      Male   
##  8     2808     28 Female    Male   
##  9     2809     28 Female    Male   
## 10     2810     28 Male      Male   
## # ℹ 35 more rows
…
# Because we ran this without previously grouping the data frame by ego ID, each
# function is calculated on all alters from all egos pooled (all rows of the
# alter attribute data frame), not on the set of alters of each ego.

# If we group the data frame by ego_ID, each of those summary statistics is
# calculated for each ego:

# * Mean alter closeness:
alter.attr.all |>
  # Group by ego ID
  group_by(ego_ID) |>
  # Calculate summary measure
  summarise(mean.clo = mean(alter.clo, na.rm = TRUE))

## # A tibble: 102 × 2
##    ego_ID mean.clo
##     <dbl>    <dbl>
##  1     28     4.1 
##  2     29     4.03
##  3     33     3.62
##  4     35     3.78
##  5     39     3.73
##  6     40     3.32
##  7     45     4.02
##  8     46     3.48
##  9     47     4.05
## 10     48     4.07
## # ℹ 92 more rows

# * N of distinct values in the alter nationality variable (i.e., number of 
# distinct nationalities of alters):
alter.attr.all |>
  group_by(ego_ID) |>
  summarise(N.nat = n_distinct(alter.nat))

## # A tibble: 102 × 2
##    ego_ID N.nat
##     <dbl> <int>
##  1     28     2
##  2     29     2
##  3     33     3
##  4     35     3
##  5     39     3
##  6     40     3
##  7     45     3
##  8     46     3
##  9     47     1
## 10     48     3
## # ℹ 92 more rows

# We can also "permanently" group the data frame by ego_ID and then calculate all
# our summary measures by ego ID.
alter.attr.all <- alter.attr.all |> 
  group_by(ego_ID)

# * N of distinct values in the alter nationality, country of residence, and
# age bracket variables:
alter.attr.all |>
  summarise(
    across(c(alter.nat, alter.res, alter.age.cat), 
           n_distinct)
    )

## # A tibble: 102 × 4
##    ego_ID alter.nat alter.res alter.age.cat
##     <dbl>     <int>     <int>         <int>
##  1     28         2         3             7
##  2     29         2         3             7
##  3     33         3         2             6
##  4     35         3         3             7
##  5     39         3         3             7
##  6     40         3         3             6
##  7     45         3         3             8
##  8     46         3         3             7
##  9     47         1         3             6
## 10     48         3         3             7
## # ℹ 92 more rows

# We can also use summarise to run more complex functions on alter attributes
# by ego.

# Imagine we want to count the number of alters who are "Close family", "Other
# family", and "Friends" in an ego-network.

# Let's consider the ego-network of ego ID 28 as an example.
alter.attr.28

## # A tibble: 45 × 12
##    alter_ID ego_ID alter_num alter.sex alter.age.cat alter.rel    alter.nat
##       <dbl>  <dbl>     <dbl> <fct>     <fct>         <fct>        <fct>    
##  1     2801     28         1 Female    51-60         Close family Sri Lanka
##  2     2802     28         2 Male      51-60         Other family Sri Lanka
##  3     2803     28         3 Male      51-60         Close family Sri Lanka
##  4     2804     28         4 Male      60+           Close family Sri Lanka
##  5     2805     28         5 Female    41-50         Close family Sri Lanka
##  6     2806     28         6 Female    60+           Close family Sri Lanka
##  7     2807     28         7 Male      41-50         Other family Sri Lanka
##  8     2808     28         8 Female    36-40         Other family Sri Lanka
##  9     2809     28         9 Female    51-60         Other family Sri Lanka
## 10     2810     28        10 Male      60+           Other family Sri Lanka
## # ℹ 35 more rows
## # ℹ 5 more variables: alter.res <fct>, alter.clo <dbl>, alter.loan <fct>,
## #   alter.fam <fct>, alter.age <dbl>
…
## [1] 5

sum(alter.attr.28$alter.rel=="Friends")

## [1] 27

# With dplyr we can run the same operations for every ego
N.rel <- alter.attr.all |>
  summarise(N.clo.fam = sum(alter.rel=="Close family"),
            N.oth.fam = sum(alter.rel=="Other family"),
            N.fri = sum(alter.rel=="Friends"))
N.rel

## # A tibble: 102 × 4
##    ego_ID N.clo.fam N.oth.fam N.fri
##     <dbl>     <int>     <int> <int>
##  1     28         5         5    27
##  2     29         5         6    30
##  3     33         3        16    13
##  4     35         4         1    38
##  5     39         4         9    27
##  6     40         5         7    17
##  7     45         3         6    30
##  8     46         3        14    12
##  9     47         1        20    18
## 10     48         4         6    26
## # ℹ 92 more rows

# After getting compositional summary variables for each ego, we might want to
# join them with other ego-level data (level-2 join).

# Merge with summary variables.
ego.df |>
  left_join(N.rel, by= "ego_ID")

## # A tibble: 102 × 12
##    ego_ID ego.sex ego.age ego.arr ego.edu ego.inc  empl ego.empl.bin ego.age.cat
##     <dbl> <fct>     <dbl>   <dbl> <fct>     <dbl> <dbl> <fct>        <fct>      
##  1     28 Male         61    2008 Second…     350     3 Yes          60+        
##  2     29 Male         38    2000 Primary     900     4 Yes          36-40      
##  3     33 Male         30    2010 Primary     200     3 Yes          26-30      
##  4     35 Male         25    2009 Second…    1000     3 Yes          18-25      
##  5     39 Male         29    2007 Primary       0     1 No           26-30      
##  6     40 Male         56    2008 Second…     950     4 Yes          51-60      
##  7     45 Male         52    1975 Primary    1600     3 Yes          51-60      
##  8     46 Male         35    2002 Second…    1200     4 Yes          31-35      
##  9     47 Male         22    2010 Second…     700     4 Yes          18-25      
## 10     48 Male         51    2007 Primary     950     4 Yes          51-60      
## # ℹ 92 more rows
## # ℹ 3 more variables: N.clo.fam <int>, N.oth.fam <int>, N.fri <int>

# We can then ungroup alter.attr.all by ego ID to remove the grouping information.
alter.attr.all <- ungroup(alter.attr.all)

# To get the size of each personal network, we can simpy use the count() function:
# it counts the number of rows for each unique value of a variable. The
# number of rows for each unique value of ego_ID in alter.attr.all is the number
# of alters for each ego (personal network size).
alter.attr.all |> 
  dplyr::count(ego_ID)

## # A tibble: 102 × 2
##    ego_ID     n
##     <dbl> <int>
##  1     28    45
##  2     29    45
##  3     33    45
##  4     35    45
##  5     39    45
##  6     40    45
##  7     45    45
##  8     46    45
##  9     47    45
## 10     48    45
## # ℹ 92 more rows
…
