Chapter 7 The egor package | Egocentric network analysis with R
…
The resulting data objects are those that we used in the previous chapters (saved in the data.rda file).

# Load packages
library(tidyverse)
library(magrittr)
library(igraph)
library(egor)
library(janitor)

# Import the raw csv files into R as data frames.

# Ego attributes
(ego.df <- read_csv("./Data/raw_data/ego_data.csv"))

## # A tibble: 102 × 9
##    ego_ID ego.sex ego.age ego.arr ego.edu   ego.inc  empl ego.empl.bin ego.age…¹
##     <dbl> <chr>     <dbl>   <dbl> <chr>       <dbl> <dbl> <chr>        <chr>    
##  1     28 Male         61    2008 Secondary     350     3 Yes          60+      
##  2     29 Male         38    2000 Primary       900     4 Yes          36-40    
##  3     33 Male         30    2010 Primary       200     3 Yes          26-30    
##  4     35 Male         25    2009 Secondary    1000     3 Yes          18-25    
##  5     39 Male         29    2007 Primary         0     1 No           26-30    
##  6     40 Male         56    2008 Secondary     950     4 Yes          51-60    
##  7     45 Male         52    1975 Primary      1600     3 Yes          51-60    
##  8     46 Male         35    2002 Secondary    1200     4 Yes          31-35    
##  9     47 Male         22    2010 Secondary     700     4 Yes          18-25    
## 10     48 Male         51    2007 Primary       950     4 Yes          51-60    
## # … with 92 more rows, and abbreviated variable name ¹​ego.age.cat

# Convert all character variables to factor
# Using dplyr's across(), this code takes all ego.df variables that are character
# (where(is.character)) and applies the as.factor() function to each, converting 
# it to a factor variable. The resulting data frame is re-assigned to ego.df 
# (%<>%).
ego.df %<>% 
  mutate(across(where(is.character), as.factor))

# Alter attributes (all alters from all egos in same data frame).
(alter.attr.all <- read_csv("./Data/raw_data/alter_attributes.csv"))

## # A tibble: 4,590 × 12
##    alter_ID ego_ID alter_num alter.sex alter.a…¹ alter…² alter…³ alter…⁴ alter…⁵
##       <dbl>  <dbl>     <dbl> <chr>     <chr>     <chr>   <chr>   <chr>     <dbl>
##  1     2801     28         1 Female    51-60     Close … Sri La… Sri La…      NA
##  2     2802     28         2 Male      51-60     Other … Sri La… Sri La…       3
##  3     2803     28         3 Male      51-60     Close … Sri La… Sri La…      NA
##  4     2804     28         4 Male      60+       Close … Sri La… Sri La…      NA
##  5     2805     28         5 Female    41-50     Close … Sri La… Sri La…      NA
##  6     2806     28         6 Female    60+       Close … Sri La… Sri La…      NA
##  7     2807     28         7 Male      41-50     Other … Sri La… Sri La…       5
##  8     2808     28         8 Female    36-40     Other … Sri La… Sri La…       4
##  9     2809     28         9 Female    51-60     Other … Sri La… Sri La…       5
## 10     2810     28        10 Male      60+       Other … Sri La… Sri La…       5
## # … with 4,580 more rows, 3 more variables: alter.loan <chr>, alter.fam <chr>,
## #   alter.age <dbl>, and abbreviated variable names ¹​alter.age.cat, ²​alter.rel,
## #   ³​alter.nat, ⁴​alter.res, ⁵​alter.clo
…
## [1] "Male"   "Female"

# Note that this doesn't alter the actual data in ego.df, just adds "Female" to 
# the list of possible levels (categories) in ego.sex.
ego.df %>%
  tabyl(ego.sex)

##  ego.sex   n percent
##     Male 102       1
##   Female   0       0

# Alter-alter ties (single edge list with all alters from all egos).
(alter_ties <- read_csv("./Data/raw_data/alter_ties.csv"))

## # A tibble: 30,064 × 4
##     from    to ego_ID weight
##    <dbl> <dbl>  <dbl>  <dbl>
##  1  2801  2802     28      1
##  2  2801  2803     28      1
##  3  2801  2804     28      1
##  4  2801  2805     28      1
##  5  2801  2806     28      1
##  6  2801  2807     28      1
##  7  2801  2808     28      1
##  8  2801  2809     28      1
##  9  2801  2810     28      1
## 10  2801  2811     28      1
## # … with 30,054 more rows
…
