Chapter 6 Multilevel modeling of ego-network data | Egocentric network analysis with R
…
# Clear the workspace from all previous objects
rm(list=ls())

# Load the data
load("./Data/data.rda")

# Create data frame object for models (level-1 join)
(model.data <- left_join(alter.attr.all, ego.df, by= "ego_ID"))

## # A tibble: 4,590 × 20
##    alter_ID ego_ID alter_num alter.sex alter.age.cat alter.rel    alter.nat
##       <dbl>  <dbl>     <dbl> <fct>     <fct>         <fct>        <fct>    
##  1     2801     28         1 Female    51-60         Close family Sri Lanka
##  2     2802     28         2 Male      51-60         Other family Sri Lanka
##  3     2803     28         3 Male      51-60         Close family Sri Lanka
##  4     2804     28         4 Male      60+           Close family Sri Lanka
##  5     2805     28         5 Female    41-50         Close family Sri Lanka
##  6     2806     28         6 Female    60+           Close family Sri Lanka
##  7     2807     28         7 Male      41-50         Other family Sri Lanka
##  8     2808     28         8 Female    36-40         Other family Sri Lanka
##  9     2809     28         9 Female    51-60         Other family Sri Lanka
## 10     2810     28        10 Male      60+           Other family Sri Lanka
## # … with 4,580 more rows, and 13 more variables: alter.res <fct>,
## #   alter.clo <dbl>, alter.loan <fct>, alter.fam <fct>, alter.age <dbl>,
## #   ego.sex <fct>, ego.age <dbl>, ego.arr <dbl>, ego.edu <fct>, ego.inc <dbl>,
## #   empl <dbl>, ego.empl.bin <fct>, ego.age.cat <fct>
…
