Chapter 3 Representing and visualizing ego-networks | Egocentric network analysis with R
…
Do the level-1 join: Bring ego attributes into an alter-level data frame.

# Load packages.
library(tidyverse)

# Load data.
load("./Data/data.rda")

# The file we just loaded includes the following objects.

# * Ego-level attribute data
ego.df

## # A tibble: 102 × 9
##    ego_ID ego.sex ego.age ego.arr ego.edu   ego.inc  empl ego.empl.bin ego.age…¹
##     <dbl> <fct>     <dbl>   <dbl> <fct>       <dbl> <dbl> <fct>        <fct>    
##  1     28 Male         61    2008 Secondary     350     3 Yes          60+      
##  2     29 Male         38    2000 Primary       900     4 Yes          36-40    
##  3     33 Male         30    2010 Primary       200     3 Yes          26-30    
##  4     35 Male         25    2009 Secondary    1000     3 Yes          18-25    
##  5     39 Male         29    2007 Primary         0     1 No           26-30    
##  6     40 Male         56    2008 Secondary     950     4 Yes          51-60    
##  7     45 Male         52    1975 Primary      1600     3 Yes          51-60    
##  8     46 Male         35    2002 Secondary    1200     4 Yes          31-35    
##  9     47 Male         22    2010 Secondary     700     4 Yes          18-25    
## 10     48 Male         51    2007 Primary       950     4 Yes          51-60    
## # … with 92 more rows, and abbreviated variable name ¹​ego.age.cat

# * Attribute data for alters and ego-alter ties (all alters and ego-alter ties 
# in one data frame). 
alter.attr.all

## # A tibble: 4,590 × 12
##    alter_ID ego_ID alter_num alter.sex alter.a…¹ alter…² alter…³ alter…⁴ alter…⁵
##       <dbl>  <dbl>     <dbl> <fct>     <fct>     <fct>   <fct>   <fct>     <dbl>
##  1     2801     28         1 Female    51-60     Close … Sri La… Sri La…      NA
##  2     2802     28         2 Male      51-60     Other … Sri La… Sri La…       3
##  3     2803     28         3 Male      51-60     Close … Sri La… Sri La…      NA
##  4     2804     28         4 Male      60+       Close … Sri La… Sri La…      NA
##  5     2805     28         5 Female    41-50     Close … Sri La… Sri La…      NA
##  6     2806     28         6 Female    60+       Close … Sri La… Sri La…      NA
##  7     2807     28         7 Male      41-50     Other … Sri La… Sri La…       5
##  8     2808     28         8 Female    36-40     Other … Sri La… Sri La…       4
##  9     2809     28         9 Female    51-60     Other … Sri La… Sri La…       5
## 10     2810     28        10 Male      60+       Other … Sri La… Sri La…       5
## # … with 4,580 more rows, 3 more variables: alter.loan <fct>, alter.fam <fct>,
## #   alter.age <dbl>, and abbreviated variable names ¹​alter.age.cat, ²​alter.rel,
## #   ³​alter.nat, ⁴​alter.res, ⁵​alter.clo

# Level-1 join: Ego attributes into alter-level data (one to many).
(data <- left_join(alter.attr.all, ego.df, by= "ego_ID"))

## # A tibble: 4,590 × 20
##    alter_ID ego_ID alter_num alter.sex alter.a…¹ alter…² alter…³ alter…⁴ alter…⁵
##       <dbl>  <dbl>     <dbl> <fct>     <fct>     <fct>   <fct>   <fct>     <dbl>
##  1     2801     28         1 Female    51-60     Close … Sri La… Sri La…      NA
##  2     2802     28         2 Male      51-60     Other … Sri La… Sri La…       3
##  3     2803     28         3 Male      51-60     Close … Sri La… Sri La…      NA
##  4     2804     28         4 Male      60+       Close … Sri La… Sri La…      NA
##  5     2805     28         5 Female    41-50     Close … Sri La… Sri La…      NA
##  6     2806     28         6 Female    60+       Close … Sri La… Sri La…      NA
##  7     2807     28         7 Male      41-50     Other … Sri La… Sri La…       5
##  8     2808     28         8 Female    36-40     Other … Sri La… Sri La…       4
##  9     2809     28         9 Female    51-60     Other … Sri La… Sri La…       5
## 10     2810     28        10 Male      60+       Other … Sri La… Sri La…       5
## # … with 4,580 more rows, 11 more variables: alter.loan <fct>, alter.fam <fct>,
## #   alter.age <dbl>, ego.sex <fct>, ego.age <dbl>, ego.arr <dbl>,
## #   ego.edu <fct>, ego.inc <dbl>, empl <dbl>, ego.empl.bin <fct>,
## #   ego.age.cat <fct>, and abbreviated variable names ¹​alter.age.cat,
## #   ²​alter.rel, ³​alter.nat, ⁴​alter.res, ⁵​alter.clo

# Note that the new data frame has one row for each alter, and the same ego ID
# and ego attribute value is repeated for all alters belonging to the same ego.
data %>% 
  dplyr::select(alter_ID, ego_ID, ego.age, ego.edu)

## # A tibble: 4,590 × 4
##    alter_ID ego_ID ego.age ego.edu  
##       <dbl>  <dbl>   <dbl> <fct>    
##  1     2801     28      61 Secondary
##  2     2802     28      61 Secondary
##  3     2803     28      61 Secondary
##  4     2804     28      61 Secondary
##  5     2805     28      61 Secondary
##  6     2806     28      61 Secondary
##  7     2807     28      61 Secondary
##  8     2808     28      61 Secondary
##  9     2809     28      61 Secondary
## 10     2810     28      61 Secondary
## # … with 4,580 more rows
…
