Chapter 8 Supplementary topics | Egocentric network analysis with R
…
# Get the ego-network of ego ID 28 from an external edge list and a data set
# with alter attributes.

# Read in the edge list for ego 28. This is a personal network edge list.
(elist.28 <- read_csv("./Data/raw_data/alter_ties_028.csv"))

## Rows: 259 Columns: 3
## ── Column specification ────────────────────────────────────────────────────────
## Delimiter: ","
## dbl (3): from, to, weight
## 
## ℹ Use `spec()` to retrieve the full column specification for this data.
## ℹ Specify the column types or set `show_col_types = FALSE` to quiet this message.

## # A tibble: 259 × 3
##     from    to weight
##    <dbl> <dbl>  <dbl>
##  1  2801  2802      1
##  2  2801  2803      1
##  3  2801  2804      1
##  4  2801  2805      1
##  5  2801  2806      1
##  6  2801  2807      1
##  7  2801  2808      1
##  8  2801  2809      1
##  9  2801  2810      1
## 10  2801  2811      1
## # ℹ 249 more rows

# Read in the alter attribute data for ego 28. 
(alter.attr.28 <- read_csv("./Data/raw_data/alter_attributes_028.csv"))

## Rows: 45 Columns: 12
## ── Column specification ────────────────────────────────────────────────────────
## Delimiter: ","
## chr (7): alter.sex, alter.age.cat, alter.rel, alter.nat, alter.res, alter.lo...
## dbl (5): alter_ID, ego_ID, alter_num, alter.clo, alter.age
## 
## ℹ Use `spec()` to retrieve the full column specification for this data.
## ℹ Specify the column types or set `show_col_types = FALSE` to quiet this message.

## # A tibble: 45 × 12
##    alter_ID ego_ID alter_num alter.sex alter.age.cat alter.rel    alter.nat
##       <dbl>  <dbl>     <dbl> <chr>     <chr>         <chr>        <chr>    
##  1     2801     28         1 Female    51-60         Close family Sri Lanka
##  2     2802     28         2 Male      51-60         Other family Sri Lanka
##  3     2803     28         3 Male      51-60         Close family Sri Lanka
##  4     2804     28         4 Male      60+           Close family Sri Lanka
##  5     2805     28         5 Female    41-50         Close family Sri Lanka
##  6     2806     28         6 Female    60+           Close family Sri Lanka
##  7     2807     28         7 Male      41-50         Other family Sri Lanka
##  8     2808     28         8 Female    36-40         Other family Sri Lanka
##  9     2809     28         9 Female    51-60         Other family Sri Lanka
## 10     2810     28        10 Male      60+           Other family Sri Lanka
## # ℹ 35 more rows
## # ℹ 5 more variables: alter.res <chr>, alter.clo <dbl>, alter.loan <chr>,
## #   alter.fam <chr>, alter.age <dbl>
…
# Import all ego and alter attributes

# Import ego-level data.
(ego.df <- read_csv("./Data/raw_data/ego_data.csv"))

## Rows: 102 Columns: 9
## ── Column specification ────────────────────────────────────────────────────────
## Delimiter: ","
## chr (4): ego.sex, ego.edu, ego.empl.bin, ego.age.cat
## dbl (5): ego_ID, ego.age, ego.arr, ego.inc, empl
## 
## ℹ Use `spec()` to retrieve the full column specification for this data.
## ℹ Specify the column types or set `show_col_types = FALSE` to quiet this message.

## # A tibble: 102 × 9
##    ego_ID ego.sex ego.age ego.arr ego.edu ego.inc  empl ego.empl.bin ego.age.cat
##     <dbl> <chr>     <dbl>   <dbl> <chr>     <dbl> <dbl> <chr>        <chr>      
##  1     28 Male         61    2008 Second…     350     3 Yes          60+        
##  2     29 Male         38    2000 Primary     900     4 Yes          36-40      
##  3     33 Male         30    2010 Primary     200     3 Yes          26-30      
##  4     35 Male         25    2009 Second…    1000     3 Yes          18-25      
##  5     39 Male         29    2007 Primary       0     1 No           26-30      
##  6     40 Male         56    2008 Second…     950     4 Yes          51-60      
##  7     45 Male         52    1975 Primary    1600     3 Yes          51-60      
##  8     46 Male         35    2002 Second…    1200     4 Yes          31-35      
##  9     47 Male         22    2010 Second…     700     4 Yes          18-25      
## 10     48 Male         51    2007 Primary     950     4 Yes          51-60      
## # ℹ 92 more rows

# Import the csv file with attributes of all alters from all egos.
(alter.attr.all <- read_csv("./Data/raw_data/alter_attributes.csv"))

## Rows: 4590 Columns: 12
## ── Column specification ────────────────────────────────────────────────────────
## Delimiter: ","
## chr (7): alter.sex, alter.age.cat, alter.rel, alter.nat, alter.res, alter.lo...
## dbl (5): alter_ID, ego_ID, alter_num, alter.clo, alter.age
## 
## ℹ Use `spec()` to retrieve the full column specification for this data.
## ℹ Specify the column types or set `show_col_types = FALSE` to quiet this message.

## # A tibble: 4,590 × 12
##    alter_ID ego_ID alter_num alter.sex alter.age.cat alter.rel    alter.nat
##       <dbl>  <dbl>     <dbl> <chr>     <chr>         <chr>        <chr>    
##  1     2801     28         1 Female    51-60         Close family Sri Lanka
##  2     2802     28         2 Male      51-60         Other family Sri Lanka
##  3     2803     28         3 Male      51-60         Close family Sri Lanka
##  4     2804     28         4 Male      60+           Close family Sri Lanka
##  5     2805     28         5 Female    41-50         Close family Sri Lanka
##  6     2806     28         6 Female    60+           Close family Sri Lanka
##  7     2807     28         7 Male      41-50         Other family Sri Lanka
##  8     2808     28         8 Female    36-40         Other family Sri Lanka
##  9     2809     28         9 Female    51-60         Other family Sri Lanka
## 10     2810     28        10 Male      60+           Other family Sri Lanka
## # ℹ 4,580 more rows
## # ℹ 5 more variables: alter.res <chr>, alter.clo <dbl>, alter.loan <chr>,
## #   alter.fam <chr>, alter.age <dbl>
…
##   [1] "28"  "29"  "33"  "35"  "39"  "40"  "45"  "46"  "47"  "48"  "49"  "51" 
##  [13] "52"  "53"  "55"  "56"  "57"  "58"  "59"  "60"  "61"  "62"  "64"  "65" 
##  [25] "66"  "68"  "69"  "71"  "73"  "74"  "78"  "79"  "80"  "81"  "82"  "83" 
##  [37] "84"  "85"  "86"  "87"  "88"  "90"  "91"  "92"  "93"  "94"  "95"  "97" 
##  [49] "99"  "102" "104" "105" "107" "108" "109" "110" "112" "113" "114" "115"
##  [61] "116" "118" "119" "120" "121" "122" "123" "124" "125" "126" "127" "128"
##  [73] "129" "130" "131" "132" "133" "135" "136" "138" "139" "140" "141" "142"
##  [85] "144" "146" "147" "149" "151" "152" "153" "154" "155" "156" "157" "158"
##  [97] "159" "160" "161" "162" "163" "164"

# The list element is the alter attribute data for a single ego. Get the
# attribute data frame for ego ID 94.
alter.attr.list[["94"]]

## # A tibble: 45 × 12
##    alter_ID ego_ID alter_num alter.sex alter.age.cat alter.rel    alter.nat
##       <dbl>  <dbl>     <dbl> <chr>     <chr>         <chr>        <chr>    
##  1     9401     94         1 Male      60+           Close family Sri Lanka
##  2     9402     94         2 Female    60+           Close family Sri Lanka
##  3     9403     94         3 Female    26-30         Close family Sri Lanka
##  4     9404     94         4 Male      26-30         Close family Sri Lanka
##  5     9405     94         5 Male      31-35         Close family Sri Lanka
##  6     9406     94         6 Female    60+           Other family Sri Lanka
##  7     9407     94         7 Male      51-60         Other family Sri Lanka
##  8     9408     94         8 Female    36-40         Other family Sri Lanka
##  9     9409     94         9 Female    51-60         Other family Sri Lanka
## 10     9410     94        10 Male      18-25         Other family Sri Lanka
## # ℹ 35 more rows
## # ℹ 5 more variables: alter.res <chr>, alter.clo <dbl>, alter.loan <chr>,
## #   alter.fam <chr>, alter.age <dbl>

# The reverse of splitting is also easy to do: if we have N data frames in a
# list, we can easily bind them into a single data frame by stacking their rows
# together.
alter.attr.all.2 <- bind_rows(alter.attr.list)

# The result is a single alter-level data frame where each row is an alter, and
# alters from all egos are in the same data frame.
alter.attr.all.2

## # A tibble: 4,590 × 12
##    alter_ID ego_ID alter_num alter.sex alter.age.cat alter.rel    alter.nat
##       <dbl>  <dbl>     <dbl> <chr>     <chr>         <chr>        <chr>    
##  1     2801     28         1 Female    51-60         Close family Sri Lanka
##  2     2802     28         2 Male      51-60         Other family Sri Lanka
##  3     2803     28         3 Male      51-60         Close family Sri Lanka
##  4     2804     28         4 Male      60+           Close family Sri Lanka
##  5     2805     28         5 Female    41-50         Close family Sri Lanka
##  6     2806     28         6 Female    60+           Close family Sri Lanka
##  7     2807     28         7 Male      41-50         Other family Sri Lanka
##  8     2808     28         8 Female    36-40         Other family Sri Lanka
##  9     2809     28         9 Female    51-60         Other family Sri Lanka
## 10     2810     28        10 Male      60+           Other family Sri Lanka
## # ℹ 4,580 more rows
## # ℹ 5 more variables: alter.res <chr>, alter.clo <dbl>, alter.loan <chr>,
## #   alter.fam <chr>, alter.age <dbl>
…
# Let's import the csv containing a single edge list with alters from all
# egos.
(elist.all <- read_csv("./Data/raw_data/alter_ties.csv"))

## Rows: 30064 Columns: 4
## ── Column specification ────────────────────────────────────────────────────────
## Delimiter: ","
## dbl (4): from, to, ego_ID, weight
## 
## ℹ Use `spec()` to retrieve the full column specification for this data.
## ℹ Specify the column types or set `show_col_types = FALSE` to quiet this message.

## # A tibble: 30,064 × 4
##     from    to ego_ID weight
##    <dbl> <dbl>  <dbl>  <dbl>
##  1  2801  2802     28      1
##  2  2801  2803     28      1
##  3  2801  2804     28      1
##  4  2801  2805     28      1
##  5  2801  2806     28      1
##  6  2801  2807     28      1
##  7  2801  2808     28      1
##  8  2801  2809     28      1
##  9  2801  2810     28      1
## 10  2801  2811     28      1
## # ℹ 30,054 more rows
…
names(elist.all.list)

##   [1] "28"  "29"  "33"  "35"  "39"  "40"  "45"  "46"  "47"  "48"  "49"  "51" 
##  [13] "52"  "53"  "55"  "56"  "57"  "58"  "59"  "60"  "61"  "62"  "64"  "65" 
##  [25] "66"  "68"  "69"  "71"  "73"  "74"  "78"  "79"  "80"  "81"  "82"  "83" 
##  [37] "84"  "85"  "86"  "87"  "88"  "90"  "91"  "92"  "93"  "94"  "95"  "97" 
##  [49] "99"  "102" "104" "105" "107" "108" "109" "110" "112" "113" "114" "115"
##  [61] "116" "118" "119" "120" "121" "122" "123" "124" "125" "126" "127" "128"
##  [73] "129" "130" "131" "132" "133" "135" "136" "138" "139" "140" "141" "142"
##  [85] "144" "146" "147" "149" "151" "152" "153" "154" "155" "156" "157" "158"
##  [97] "159" "160" "161" "162" "163" "164"

elist.all.list[["94"]]

## # A tibble: 265 × 4
##     from    to ego_ID weight
##    <dbl> <dbl>  <dbl>  <dbl>
##  1  9401  9402     94      1
##  2  9401  9403     94      1
##  3  9401  9404     94      1
##  4  9401  9405     94      1
##  5  9401  9406     94      1
##  6  9401  9407     94      1
##  7  9401  9408     94      1
##  8  9401  9409     94      1
##  9  9401  9410     94      1
## 10  9401  9411     94      1
## # ℹ 255 more rows
…
names(elist.all.list)

##   [1] "28"  "29"  "33"  "35"  "39"  "40"  "45"  "46"  "47"  "48"  "49"  "51" 
##  [13] "52"  "53"  "55"  "56"  "57"  "58"  "59"  "60"  "61"  "62"  "64"  "65" 
##  [25] "66"  "68"  "69"  "71"  "73"  "74"  "78"  "79"  "80"  "81"  "82"  "83" 
##  [37] "84"  "85"  "86"  "87"  "88"  "90"  "91"  "92"  "93"  "94"  "95"  "97" 
##  [49] "99"  "102" "104" "105" "107" "108" "109" "110" "112" "113" "114" "115"
##  [61] "116" "118" "119" "120" "121" "122" "123" "124" "125" "126" "127" "128"
##  [73] "129" "130" "131" "132" "133" "135" "136" "138" "139" "140" "141" "142"
##  [85] "144" "146" "147" "149" "151" "152" "153" "154" "155" "156" "157" "158"
##  [97] "159" "160" "161" "162" "163" "164"

elist.all.list[[1]]

## # A tibble: 259 × 4
##     from    to ego_ID weight
##    <dbl> <dbl>  <dbl>  <dbl>
##  1  2801  2802     28      1
##  2  2801  2803     28      1
##  3  2801  2804     28      1
##  4  2801  2805     28      1
##  5  2801  2806     28      1
##  6  2801  2807     28      1
##  7  2801  2808     28      1
##  8  2801  2809     28      1
##  9  2801  2810     28      1
## 10  2801  2811     28      1
## # ℹ 249 more rows
…
# Add the relative frequency of Italians.
comp.measures <- comp.measures |> 
  mutate(prop.ita = N.ita/45)

# Show result.
comp.measures

## # A tibble: 102 × 5
##    ego_ID N.ita N.slk N.oth prop.ita
##     <dbl> <int> <int> <int>    <dbl>
##  1     28     0    43     2   0     
##  2     29     1    44     0   0.0222
##  3     33     2    32    11   0.0444
##  4     35     4    33     8   0.0889
##  5     39     5    39     1   0.111 
##  6     40     1    34    10   0.0222
##  7     45    19    14    12   0.422 
##  8     46     7    33     5   0.156 
##  9     47     0    45     0   0     
## 10     48     4    39     2   0.0889
## # ℹ 92 more rows
…
  # Average degree of Italians, as a proportion of overall average degree.
  avg.deg.ita.prop <- avg.deg.ita/mean(igraph::degree(gr))
  # This is also NaN if there are no Italians. 
  
  # Return the 3 results as a tibble
  tibble(dens.ita = dens.ita, 
         avg.deg.ita = avg.deg.ita, 
         avg.deg.ita.prop = avg.deg.ita.prop)
}

# Run the function on all personal networks.
(str.ita.df <- map_dfr(gr.list, str.ita, .id= "ego_ID"))

## # A tibble: 102 × 4
##    ego_ID dens.ita avg.deg.ita avg.deg.ita.prop
##    <chr>     <dbl>       <dbl>            <dbl>
##  1 28      NaN          NaN             NaN    
##  2 29      NaN            0               0    
##  3 33        1            1               0.109
##  4 35        0            3.25            0.331
##  5 39        0            0               0    
##  6 40      NaN            3               0.265
##  7 45        0.193        6.11            0.751
##  8 46        0.571       10.7             0.903
##  9 47      NaN          NaN             NaN    
## 10 48        1            5               0.560
## # ℹ 92 more rows

# Convert ego_ID from character to numeric for consistency with ego attribute
# data.
str.ita.df <- str.ita.df |> 
  mutate(ego_ID = as.numeric(ego_ID))

# Association with ego-level variables
# - - - - - - - - - - - - - - - - - - - - - - - - - - - - - - - - - - - - - - - 

# Ego attribute data
ego.df

## # A tibble: 102 × 9
##    ego_ID ego.sex ego.age ego.arr ego.edu ego.inc  empl ego.empl.bin ego.age.cat
##     <dbl> <fct>     <dbl>   <dbl> <fct>     <dbl> <dbl> <fct>        <fct>      
##  1     28 Male         61    2008 Second…     350     3 Yes          60+        
##  2     29 Male         38    2000 Primary     900     4 Yes          36-40      
##  3     33 Male         30    2010 Primary     200     3 Yes          26-30      
##  4     35 Male         25    2009 Second…    1000     3 Yes          18-25      
##  5     39 Male         29    2007 Primary       0     1 No           26-30      
##  6     40 Male         56    2008 Second…     950     4 Yes          51-60      
##  7     45 Male         52    1975 Primary    1600     3 Yes          51-60      
##  8     46 Male         35    2002 Second…    1200     4 Yes          31-35      
##  9     47 Male         22    2010 Second…     700     4 Yes          18-25      
## 10     48 Male         51    2007 Primary     950     4 Yes          51-60      
## # ℹ 92 more rows

# Join ego-level data with compositional variables obtained above.
ego.df <- ego.df |> 
  left_join(comp.measures, by= "ego_ID")

# Merge ego-level data with structural variables obtained above.
ego.df <- ego.df |> 
  left_join(str.ita.df, by= "ego_ID")

# See the result (just a subset of the variables)
ego.df |> 
  dplyr::select(ego_ID, ego.sex, ego.age, N.slk, prop.ita, dens.ita)

## # A tibble: 102 × 6
##    ego_ID ego.sex ego.age N.slk prop.ita dens.ita
##     <dbl> <fct>     <dbl> <int>    <dbl>    <dbl>
##  1     28 Male         61    43   0       NaN    
##  2     29 Male         38    44   0.0222  NaN    
##  3     33 Male         30    32   0.0444    1    
##  4     35 Male         25    33   0.0889    0    
##  5     39 Male         29    39   0.111     0    
##  6     40 Male         56    34   0.0222  NaN    
##  7     45 Male         52    14   0.422     0.193
##  8     46 Male         35    33   0.156     0.571
##  9     47 Male         22    45   0       NaN    
## 10     48 Male         51    39   0.0889    1    
## # ℹ 92 more rows
…
